Tesseract Engine — tesseract • rOpenSci: tesseract
…
    References

    tesseract wiki: control parameters

    See also

    Other tesseract: 
ocr(),
tesseract_download()

    Examples

tesseract_params('debug')

#> # A tibble: 66 x 3
#>    param                    default    desc                                     
#>  * <chr>                    <chr>      <chr>                                    
#>  1 editor_dbwin_xpos        50         Editor debug window X Pos                
#>  2 editor_dbwin_ypos        500        Editor debug window Y Pos                
#>  3 editor_dbwin_height      24         Editor debug window height               
#>  4 editor_dbwin_width       80         Editor debug window width                
#>  5 textord_debug_tabfind    0          Debug tab finding                        
#>  6 textord_debug_bugs       0          Turn on output related to bugs in tab fi…
#>  7 textord_testregion_left  -1         Left edge of debug reporting rectangle   
#>  8 textord_testregion_top   -1         Top edge of debug reporting rectangle    
#>  9 textord_testregion_right 2147483647 Right edge of debug rectangle            
#> 10 textord_testregion_bott… 2147483647 Bottom edge of debug rectangle           
#> # … with 56 more rows
…
